{
"drinks": [
	{
		"name": "Эспрессо",
		"price": "50.45"
	},
	{
		"name": "Зеленый чай",
		"price": "12.5"
	},
	{
		"name": "Черный чай",
		"price": "15.4"
	},
	{
		"name": "Какао",
		"price": "18.7"
	},
	{
		"name": "Кофе со сливками",
		"price": "70.5"
	},
	{
		"name": "Горячий шоколад",
		"price": "56.35"
	},
	{
		"name": "Капучино",
		"price": "68.7"
	}
]
}